{
    "settings":[
       { "broker_pri":"mqtt.test.com" },
       { "broker_sec":"mqtt2.test.org" },
       { "qos":"0" },
       { "user_auth":"N" },
       { "cert_auth":"N" },
       { "cert_file":"-----BEGIN CERTIFICATE-----\nMIIEZDCCA0ygAwIBAgIUHvbWkHKpY7rjDVBcsIP0C8kXqj0wDQYJKoZIhvcNAQEN\nBQAwajEXMBUGA1UEAwwOQW4gTVFUVCBicm9rZXIxFjAUBgNVBAoMDU93blRyYWNr\ncy5vcmcxFDASBgNVBAsMC2dlbmVyYXRlLUNBMSEwHwYJKoZIhvcNAQkBFhJub2Jv\nZHlAZXhhbXBsZS5uZXQwHhcNMTkxMjEyMDgyMjEzWhcNMzIxMjA4MDgyMjEzWjAb\nMRkwFwYDVQQDDBBpbmZvQGFjbW90ZWMuY29tMIIBIjANBgkqhkiG9w0BAQEFAAOC\nAQ8AMIIBCgKCAQEAnhqq8O9PExWGmG4UtXYF3FHJluTGFdY5HkYTXf6vF5Pbvxfh\n3leKqSXcmV1p30SabB1x1561R6UxKbvlR88yVMsUs6falR1gClSYpeZZnMb5fIQl\nOr4gfDtPGkIcxg7NkQ5QUHDxIsHslN4mKyJahVdwIqj/N7ZIt4P8evybBZA4cIpD\nk7ksfIajeCE/ZCNSxXLDYUGGqxy4IEpUMmsDm5NA3IC3MG1ECgTydiqanyJA+b4A\nU8OGD3iHWh0LFM57Um6PaO7Mxv6PA+I3lPna+paL6X2CsZIbqmNjqHRhzW+LsnOg\nWjLCMOc/4lGuf+hgPZReea45s0Gq+r8kDFsIpQIDAQABo4IBTzCCAUswDAYDVR0T\nAQH/BAIwADAJBgNVHREEAjAAMBEGCWCGSAGG+EIBAQQEAwIFoDAdBgNVHSUEFjAU\nBggrBgEFBQcDAgYIKwYBBQUHAwQwCwYDVR0PBAQDAgOoMCgGCWCGSAGG+EIBDQQb\nFhlDbGllbnQgQnJva2VyIENlcnRpZmljYXRlMB0GA1UdDgQWBBRWzofYh+v/wfi1\nBOeia5waBnv/ZTCBpwYDVR0jBIGfMIGcgBSTMpM9ifplznPi5iy5kCgw/0JX36Fu\npGwwajEXMBUGA1UEAwwOQW4gTVFUVCBicm9rZXIxFjAUBgNVBAoMDU93blRyYWNr\ncy5vcmcxFDASBgNVBAsMC2dlbmVyYXRlLUNBMSEwHwYJKoZIhvcNAQkBFhJub2Jv\nZHlAZXhhbXBsZS5uZXSCFGyOZBEjnLtZ7mbHdAyCrQWFT4UxMA0GCSqGSIb3DQEB\nDQUAA4IBAQA7PcsTjLZNwRGXB+AnoK4hIh6abJlabk8kF8DOTJ7ToqkI8cpVG2ks\nP6J3JhJRpYSi+OMk6x1M/Lr3HuvcvxePNfYI/pvyCRcNHoi3E3KaVq09KW6ekFj+\n15q4i259kIP2ql2jsDo9Hm0fRPSSxdPXBq8GOSr1kRo7tgowBVxw5QFF4uqCCqL5\n3CVl4FlquhClEVhnFA04zJuNETX1vOYfxErrd7MIyvCgrAUr8B9GQIto+iWTp8pR\n/xdJssu7bW6wlCHy1Bz+CrQ0xiPmDqhLRCrLduGLqwKw9xS+kvzSQOTMDs3DzQI3\naZcROP67AGdyU5wkyGAC9cGys3j08IJX\n-----END CERTIFICATE-----" },
       { "ca_file":"-----BEGIN CERTIFICATE-----\nMIIDtTCCAp2gAwIBAgIUbI5kESOcu1nuZsd0DIKtBYVPhTEwDQYJKoZIhvcNAQEN\nBQAwajEXMBUGA1UEAwwOQW4gTVFUVCBicm9rZXIxFjAUBgNVBAoMDU93blRyYWNr\ncy5vcmcxFDASBgNVBAsMC2dlbmVyYXRlLUNBMSEwHwYJKoZIhvcNAQkBFhJub2Jv\nZHlAZXhhbXBsZS5uZXQwHhcNMTkxMjEyMDgyMTU1WhcNMzIxMjA4MDgyMTU1WjBq\nMRcwFQYDVQQDDA5BbiBNUVRUIGJyb2tlcjEWMBQGA1UECgwNT3duVHJhY2tzLm9y\nZzEUMBIGA1UECwwLZ2VuZXJhdGUtQ0ExITAfBgkqhkiG9w0BCQEWEm5vYm9keUBl\neGFtcGxlLm5ldDCCASIwDQYJKoZIhvcNAQEBBQADggEPADCCAQoCggEBALbSiJ6s\nLHc9cpKkXPUy1vAAhBTJRP74PoQCzhniiyNKjUYurWf20DyMTV9CQMNDs6UD5IiL\nljG8+SWCEvUGKNEecD462G/Ero9snS4BbOL/lP5M0qzPZk+BV7Vax+pM50tRoEMx\nAPBvdV5yvZQuMb4nXc1ZO6BVcChlR8CmRAMLhUw7Lpvlx5tzBmAiaoQu5UfNXe2H\nAc7a8eY+fbSehuDnbWcoA/+5QKFbA8U4wOopq1wFhMKsADgkj/yyPOoyAEXKbV7Q\njr1ngQB1YDTTvzx3RgTBUQJHAx6KQkDPYh9bu4qe4SypoxPAZhGlv34yuMQSfeWN\n6uGZNBIOiDoDjskCAwEAAaNTMFEwHQYDVR0OBBYEFJMykz2J+mXOc+LmLLmQKDD/\nQlffMB8GA1UdIwQYMBaAFJMykz2J+mXOc+LmLLmQKDD/QlffMA8GA1UdEwEB/wQF\nMAMBAf8wDQYJKoZIhvcNAQENBQADggEBAEba8rckYnSeHvsaBCGJyIRmJUV+jqM2\n6YOuprPCfQe5MyOHrz9J5Ha9pIK2XaO337X2IMqFoJ3jEfm2QAoYXZnl03Q+agi1\nYwqS9juIZWPRii7Hl0JYDovXFpy6tfgW07DEpANna1jnLRNud4xKGFCCElW+GNwJ\nFInyyWSIX4BqTSaGTczbm+U2ImJyfBnbh3lEgIAOUrUrsHtYyIapSW9FiKgtWYxq\nL1CQ7wQLlNb0ZpM0G8ya2AwTji3HRID4+i46/mT3+yttT82/XFDFcWeFzBLCFaLE\nrsvHp8D/+qqr3MLA/YzgP0h4hSPBrkBw0R1BwffR04ZJb9XMxf0Mtb0=\n-----END CERTIFICATE-----" },
       { "key_file":"-----BEGIN RSA PRIVATE KEY-----\nMIIEowIBAAKCAQEAnhqq8O9PExWGmG4UtXYF3FHJluTGFdY5HkYTXf6vF5Pbvxfh\n3leKqSXcmV1p30SabB1x1561R6UxKbvlR88yVMsUs6falR1gClSYpeZZnMb5fIQl\nOr4gfDtPGkIcxg7NkQ5QUHDxIsHslN4mKyJahVdwIqj/N7ZIt4P8evybBZA4cIpD\nk7ksfIajeCE/ZCNSxXLDYUGGqxy4IEpUMmsDm5NA3IC3MG1ECgTydiqanyJA+b4A\nU8OGD3iHWh0LFM57Um6PaO7Mxv6PA+I3lPna+paL6X2CsZIbqmNjqHRhzW+LsnOg\nWjLCMOc/4lGuf+hgPZReea45s0Gq+r8kDFsIpQIDAQABAoIBADoZ6r/n8dM9kdzq\nd0nIOZchp0eAgxr7QrpRXkSol4e+mn67NBIVcat/cnYZ0hJuj6EzoOZwOIY/urVv\ni268Qe7PQqhTAwzRYr3pIL+2yy/GH2EW3uebfyyoTwWDTjeqsPihnfoxxyvSwDJl\nAPnRAhsGavsRx9idcFOgeWRo+D8ukPDe8GGT8c4m6RS1E9GxNzJHLxrUciGLgFGz\n5vMeyIJCuEcvm4uyZN9TNvc/v4vivzLl5e5qbsMuJ2DWMvxnPocdGsmlf+EkKYhB\nuf+9dy6PdltlPxGcqswxlhDZHQGmSJEQdBIwsHw1I1nZN5X2kCkXhxXwSAeOrbF8\nkya8FYECgYEAyiN8psH16hW5oVhllbcjGOOkDd2QSJMspZQQHDUd4bjQZxrCN/Fk\nNr+vrruSU+L5OO2L8Lj+55/yUu2WNG1g7644j12PHswkx7lku32oQBXF8Tl+Vv6v\nVfBBe0HhgCTTsQ+lw4HrqKXNXhXL0c5xIdOiQLUb4KOegNs5QV/gKL0CgYEAyDtz\nuia1vslZftU4BZzKY5jy9kpMS4ILhOhyQBQHqYGzeYTGVXVlI7i1X4JmX4bcbIrY\nNj/9EfCDf7vZJ6pWgxzhaXWfcK7/l0irdw7yzTwTbrx1bd5iaBf3HF/HlXrTGowW\nuejaA1bqGL4lVNCbyV2pUuZLiOU34PK6QrqaogkCgYEAsnjyrinC/pN/+r0ZtD6m\ndmtHhhaCNhH78ZXxQ3aCk7GiD+bIZKx1VwGYFCb446gbc/AJBtnP9qJ6Sk4LuO56\nECU7OxnYK9EDCHTgQ8qGq06OHpYsvpLQLIicyD864vGhF0xBh4VGlPkPgmqsMuqb\naMp7D7bYjlbos8zbmKUWPeECgYAA3ulQ7OwraTq/Z3P36kejCT49PfN4/JbKPCyL\nBMtHvG2oYKBwLLOE5T+8q5eAYNjCjBQGoF6cXlxkCNAX8RCxP0XnrIBGACzSXpmI\nSgNaSyGWgLFOCgKJi1kiwXPfvYn/eo56vn18ODuKYgFNjh6vUH31A1VewghtLQEM\nWz1i6QKBgAX+lw7QsbaPc7i5NrZyyXBUFbimueSTF2XAwKSeC+pxbCJuBvZRIiJT\ngjfFHMJCd+gcpUprScBPv54W2D/MrCJ8u45WmmPTHRwCHWg94UZX1Rr89RIXllHo\nWtyjhPDdKLEpcz6S36JOzm4mxGdgHiqU+bn86P67l+7w4xSjeRmw\n-----END RSA PRIVATE KEY-----\n"}
    ]
 }